C:\Users\faisalijaz1\Downloads\autosuggest-master\autosuggest-master\src\main\java\com\search\suggestion\interfaces\ServerInterface.java
C:\Users\faisalijaz1\Downloads\autosuggest-master\autosuggest-master\src\main\java\com\search\suggestion\data\RawResponse.java
C:\Users\faisalijaz1\Downloads\autosuggest-master\autosuggest-master\src\main\java\com\search\suggestion\text\index\Index.java
C:\Users\faisalijaz1\Downloads\autosuggest-master\autosuggest-master\src\main\java\com\search\suggestion\text\analyze\tokenize\WordTokenizer.java
C:\Users\faisalijaz1\Downloads\autosuggest-master\autosuggest-master\src\main\java\com\search\suggestion\text\match\PrefixAutomaton.java
C:\Users\faisalijaz1\Downloads\autosuggest-master\autosuggest-master\src\main\java\com\search\suggestion\util\Logger.java
C:\Users\faisalijaz1\Downloads\autosuggest-master\autosuggest-master\src\main\java\com\search\suggestion\listener\SearchListener.java
C:\Users\faisalijaz1\Downloads\autosuggest-master\autosuggest-master\src\main\java\com\search\suggestion\common\Strings.java
C:\Users\faisalijaz1\Downloads\autosuggest-master\autosuggest-master\src\main\java\com\search\suggestion\text\match\AbstractAutomaton.java
C:\Users\faisalijaz1\Downloads\autosuggest-master\autosuggest-master\src\main\java\com\search\suggestion\common\Precondition.java
C:\Users\faisalijaz1\Downloads\autosuggest-master\autosuggest-master\src\main\java\com\search\suggestion\util\PostQueryHandler.java
C:\Users\faisalijaz1\Downloads\autosuggest-master\autosuggest-master\src\main\java\com\search\suggestion\text\recover\Recover.java
C:\Users\faisalijaz1\Downloads\autosuggest-master\autosuggest-master\src\main\java\com\search\suggestion\adaptor\IndexAdapter.java
C:\Users\faisalijaz1\Downloads\autosuggest-master\autosuggest-master\src\main\java\com\search\suggestion\text\util\ArraySet.java
C:\Users\faisalijaz1\Downloads\autosuggest-master\autosuggest-master\src\main\java\com\search\suggestion\data\ScoredObject.java
C:\Users\faisalijaz1\Downloads\autosuggest-master\autosuggest-master\src\main\java\com\search\suggestion\text\analyze\tokenize\QGramTokenizer.java
C:\Users\faisalijaz1\Downloads\autosuggest-master\autosuggest-master\src\main\java\com\search\suggestion\util\StopWords.java
C:\Users\faisalijaz1\Downloads\autosuggest-master\autosuggest-master\src\main\java\com\search\suggestion\text\analyze\Analyzer.java
C:\Users\faisalijaz1\Downloads\autosuggest-master\autosuggest-master\src\main\java\com\search\suggestion\util\UpdateIndexHandler.java
C:\Users\faisalijaz1\Downloads\autosuggest-master\autosuggest-master\src\main\java\com\search\suggestion\data\RawSearchUpdateRequest.java
C:\Users\faisalijaz1\Downloads\autosuggest-master\autosuggest-master\src\main\java\com\search\suggestion\text\recover\ReIndex.java
C:\Users\faisalijaz1\Downloads\autosuggest-master\autosuggest-master\src\main\java\com\search\suggestion\text\match\EditDistanceAutomaton.java
C:\Users\faisalijaz1\Downloads\autosuggest-master\autosuggest-master\src\main\java\com\search\suggestion\text\index\AbstractIndex.java
C:\Users\faisalijaz1\Downloads\autosuggest-master\autosuggest-master\src\main\java\com\search\suggestion\util\DateUtil.java
C:\Users\faisalijaz1\Downloads\autosuggest-master\autosuggest-master\src\main\java\com\search\suggestion\data\RawSeachRequest.java
C:\Users\faisalijaz1\Downloads\autosuggest-master\autosuggest-master\src\main\java\com\search\suggestion\text\analyze\filter\NullFilter.java
C:\Users\faisalijaz1\Downloads\autosuggest-master\autosuggest-master\src\main\java\com\search\suggestion\text\match\Automaton.java
C:\Users\faisalijaz1\Downloads\autosuggest-master\autosuggest-master\src\main\java\com\search\suggestion\data\SuggestPayload.java
C:\Users\faisalijaz1\Downloads\autosuggest-master\autosuggest-master\src\main\java\com\search\suggestion\text\index\HashMultiMap.java
C:\Users\faisalijaz1\Downloads\autosuggest-master\autosuggest-master\src\main\java\com\search\suggestion\text\recover\RecoverFactory.java
C:\Users\faisalijaz1\Downloads\autosuggest-master\autosuggest-master\src\main\java\com\search\suggestion\text\recover\RecoverFromKyro.java
C:\Users\faisalijaz1\Downloads\autosuggest-master\autosuggest-master\src\main\java\com\search\suggestion\data\Indexable.java
C:\Users\faisalijaz1\Downloads\autosuggest-master\autosuggest-master\src\main\java\com\search\suggestion\text\analyze\SuggestAnalyzer.java
C:\Users\faisalijaz1\Downloads\autosuggest-master\autosuggest-master\src\main\java\com\search\suggestion\text\index\OptimizedTrie.java
C:\Users\faisalijaz1\Downloads\autosuggest-master\autosuggest-master\src\main\java\com\search\suggestion\text\recover\RecoverFromText.java
C:\Users\faisalijaz1\Downloads\autosuggest-master\autosuggest-master\src\main\java\com\search\suggestion\updater\SearchUpdater.java
C:\Users\faisalijaz1\Downloads\autosuggest-master\autosuggest-master\src\main\java\com\search\suggestion\util\ApplicationProperties.java
C:\Users\faisalijaz1\Downloads\autosuggest-master\autosuggest-master\src\main\java\com\search\suggestion\text\analyze\transform\LowerCaseTransformer.java
C:\Users\faisalijaz1\Downloads\autosuggest-master\autosuggest-master\src\main\java\com\search\suggestion\text\index\FuzzyIndex.java
C:\Users\faisalijaz1\Downloads\autosuggest-master\autosuggest-master\src\main\java\com\search\suggestion\util\HttpServerStream.java
C:\Users\faisalijaz1\Downloads\autosuggest-master\autosuggest-master\src\main\java\com\search\suggestion\util\InputOutputStream.java
C:\Users\faisalijaz1\Downloads\autosuggest-master\autosuggest-master\src\main\java\com\search\suggestion\socket\ServerHandler.java
C:\Users\faisalijaz1\Downloads\autosuggest-master\autosuggest-master\src\main\java\com\search\suggestion\util\ParseQuery.java
C:\Users\faisalijaz1\Downloads\autosuggest-master\autosuggest-master\src\main\java\com\search\suggestion\adaptor\SuggestAdapter.java
C:\Users\faisalijaz1\Downloads\autosuggest-master\autosuggest-master\src\main\java\com\search\suggestion\text\analyze\transform\DiacriticsTransformer.java
C:\Users\faisalijaz1\Downloads\autosuggest-master\autosuggest-master\src\main\java\com\search\suggestion\text\match\EqualityAutomaton.java
C:\Users\faisalijaz1\Downloads\autosuggest-master\autosuggest-master\src\main\java\com\search\suggestion\text\backup\DumpData.java
C:\Users\faisalijaz1\Downloads\autosuggest-master\autosuggest-master\src\main\java\com\search\suggestion\engine\SearchEngine.java
C:\Users\faisalijaz1\Downloads\autosuggest-master\autosuggest-master\src\main\java\com\search\suggestion\text\backup\SerializeDump.java
C:\Users\faisalijaz1\Downloads\autosuggest-master\autosuggest-master\src\main\java\com\search\suggestion\text\index\Node.java
C:\Users\faisalijaz1\Downloads\autosuggest-master\autosuggest-master\src\main\java\com\search\suggestion\interfaces\RawRequestInterface.java
C:\Users\faisalijaz1\Downloads\autosuggest-master\autosuggest-master\src\main\java\com\search\suggestion\TextSuggestor.java
C:\Users\faisalijaz1\Downloads\autosuggest-master\autosuggest-master\src\main\java\com\search\suggestion\common\Aggregator.java
C:\Users\faisalijaz1\Downloads\autosuggest-master\autosuggest-master\src\main\java\com\search\suggestion\data\SearchPayload.java
C:\Users\faisalijaz1\Downloads\autosuggest-master\autosuggest-master\src\main\java\com\search\suggestion\text\analyze\filter\LengthFilter.java
C:\Users\faisalijaz1\Downloads\autosuggest-master\autosuggest-master\src\main\java\com\search\suggestion\data\NodeData.java
C:\Users\faisalijaz1\Downloads\autosuggest-master\autosuggest-master\src\main\java\com\search\suggestion\text\recover\AbstractRecover.java
